The table is taken from Gnat 2011: Ion-by-Ion Cooling Efficiencies
1    Hydrogen       1A    1     
2    Helium         1B    8.33e-2  
3    Lithium        1C    2.04e-9  
4    Beryllium      1D    2.63e-11  
5    Boron          1E    6.17e-10  
6    Carbon         1F    2.45e-4  
7    Nitrogen       1G    6.03e-5  
8    Oxygen         1H    4.57e-4  
9    Fluorine       1I    3.02e-8  
10   Neon           1J    1.95e-4
11   Sodium         1K    2.14e-6  
12   Magnesium      1L    3.39e-5  
13   Aluminum       1M    2.95e-6  
14   Silicon        1N    3.24e-5
15   Phosphorus     1O    3.20e-7  
16   Sulfur         1P    1.38e-5  
17   Chlorine       1Q    1.91e-7
18   Argon          1R    2.51e-6 
19   Potassium      1S    1.32e-7  
20   Calcium        1T    2.29e-6  
21   Scandium       1U    1.48e-9  
22   Titanium       1V    1.05e-7  
23   Vanadium       1W    1.08e-8  
24   Chromium       1X    4.68e-7 
25   Manganese      1Y    2.88e-7  
26   Iron           1Z    2.82e-5  
27   Cobalt         1AA   8.32e-8  
28   Nickel         1AB   1.78e-6  
29   Copper         1AC   1.62e-8  
30   Zinc           1AD   3.98e-8  
